\boolfalse {citerequest}\boolfalse {citetracker}\boolfalse {pagetracker}\boolfalse {backtracker}\relax 
\babel@toc {ngerman}{}
\contentsline {chapter}{\numberline {1}Einleitung}{1}{chapter.1}%
\contentsline {section}{\numberline {1.1}Keramikplattenproduktion}{1}{section.1.1}%
\contentsline {section}{\numberline {1.2}Zielsetzung und Gang der Untersuchung}{2}{section.1.2}%
\contentsline {chapter}{\numberline {2}Problembeschreibung}{2}{chapter.2}%
\contentsline {section}{\numberline {2.1}formelle Problembeschreibung}{3}{section.2.1}%
\contentsline {section}{\numberline {2.2}Regeln für die Maschinenzuweisung}{4}{section.2.2}%
\contentsline {chapter}{\numberline {3}Grundlagen}{5}{chapter.3}%
\contentsline {section}{\numberline {3.1}Genetische Algorithmen}{5}{section.3.1}%
\contentsline {section}{\numberline {3.2}Random Scheduling}{7}{section.3.2}%
\contentsline {section}{\numberline {3.3}Heuristische Methoden}{7}{section.3.3}%
\contentsline {chapter}{\numberline {4}Ergebnisse und Zusammenfassung}{7}{chapter.4}%
\contentsline {section}{\numberline {4.1}Zusammenfassung und Ausblick}{8}{section.4.1}%
\contentsline {chapter}{\numberline {A}Diagramme und Tabellen}{10}{appendix.A}%
\contentsline {chapter}{\nonumberline Literatur}{12}{chapter*.5}%
